/nethome/wmartin45/cse6230fa17-proj1-cstevens34
deepthought1
Mon Sep 18 20:06:33 EDT 2017
./proj1 -i 20 -f data.xyz -o out.xyz.22843 -t 2
allocating 553472 space for computations
Number of particles: 10000
Number of intervals to simulate: 20
Using random seed: 23
Using thread count: 2
With 10000 particles of radius 1 and a box width of 59.386291, the volume fraction is 0.2.
The interaction volume is 33.5103, so we expect 1.6 interactions per particle, 8000 overall.
time: 18.098, 18.098
Done interval: 0
time: 18.1004, 36.2338
time: 18.0705, 54.3391
time: 17.9171, 72.2906
time: 17.9474, 90.2727
time: 17.9575, 108.265
Done interval: 5
time: 17.9495, 126.25
time: 17.8842, 144.169
time: 17.969, 162.207
time: 17.9974, 180.239
time: 17.9621, 198.236
Done interval: 10
time: 17.975, 216.246
time: 18.0024, 234.282
time: 17.9726, 252.29
time: 17.9807, 270.305
time: 17.9815, 288.321
Done interval: 15
time: 17.9506, 306.307
time: 18.0023, 324.344
time: 17.9509, 342.329
time: 18.0098, 360.374
Time: 360.408 for 20 intervals

real	6m0.581s
user	11m58.773s
sys	0m0.365s
Mon Sep 18 20:12:33 EDT 2017
